# in_scope: 992
# distraction: 499
--- distribution of correctly retrieved identity over the retrieval ranks (1-10) ---
rank 1: 0.9929435483870968  ***  top_1 acc: 0.9929435483870968
rank 2: 0.0010080645161290322  ***  top_2 acc: 0.9939516129032258
rank 3: 0.0  ***  top_3 acc: 0.9939516129032258
rank 4: 0.0  ***  top_4 acc: 0.9939516129032258
rank 5: 0.0  ***  top_5 acc: 0.9939516129032258
rank 6: 0.0010080645161290322  ***  top_6 acc: 0.9949596774193548
rank 7: 0.0  ***  top_7 acc: 0.9949596774193548
rank 8: 0.0  ***  top_8 acc: 0.9949596774193548
rank 9: 0.0  ***  top_9 acc: 0.9949596774193548
rank 10: 0.0  ***  top_10 acc: 0.9949596774193548
---------------------------
.

==== f-scores: ====
0.9763		0.9768		0.9773		0.9778		0.9783
0.9778		0.9782		0.9777		0.9782		0.9777
0.9782		0.9787		0.9792		0.9797		0.9802
0.9807		0.9802		0.9807		0.9812		0.9817
0.9822*		0.9817		0.9811		0.9816		0.9811
0.9806		0.9801		0.9796		0.9790		0.9785
0.9790		0.9785		0.9790		0.9785		0.9790
0.9784		0.9779		0.9784		0.9779		0.9784
.
==== thresholds: ====
0.5125		0.5156		0.5162		0.5170		0.5176
0.5194		0.5209		0.5210		0.5236		0.5239
0.5251		0.5266		0.5283		0.5330		0.5351
0.5361		0.5361		0.5363		0.5376		0.5398
0.5432*		0.5437		0.5440		0.5462		0.5466
0.5466		0.5479		0.5490		0.5497		0.5523
0.5531		0.5543		0.5553		0.5567		0.5576
0.5587		0.5588		0.5597		0.5605		0.5607
.
---- BEST f-score/threshold: 0.9821701477330615/0.543182, achieved @ 4163

-----------------------------------------
.

==== fpr: ====
0.0065		0.0065		0.0066		0.0067		0.0068
0.0068		0.0069		0.0070		0.0070		0.0071
0.0072		0.0073		0.0073		0.0074		0.0075
0.0075		0.0075		0.0076		0.0077		0.0078
0.0078*		0.0078		0.0079		0.0080		0.0080
0.0081		0.0082		0.0083		0.0083		0.0084
0.0085		0.0085		0.0086		0.0087		0.0088
0.0088		0.0089		0.0090		0.0090		0.0090
.
==== tpr: ====
0.9899		0.9899		0.9899		0.9899		0.9899
0.9899		0.9899		0.9899		0.9899		0.9899
0.9899		0.9899		0.9899		0.9899		0.9899
0.9899		0.9909		0.9909		0.9909		0.9909
0.9919*		0.9919		0.9919		0.9919		0.9919
0.9919		0.9919		0.9919		0.9919		0.9919
0.9919		0.9919		0.9919		0.9919		0.9919
0.9919		0.9919		0.9919		0.9919		0.9929
.
==== tnr: ====
0.9935		0.9935		0.9934		0.9933		0.9932
0.9932		0.9931		0.9930		0.9930		0.9929
0.9928		0.9927		0.9927		0.9926		0.9925
0.9925		0.9925		0.9924		0.9923		0.9922
0.9922*		0.9922		0.9921		0.9920		0.9920
0.9919		0.9918		0.9917		0.9917		0.9916
0.9915		0.9915		0.9914		0.9913		0.9912
0.9912		0.9911		0.9910		0.9910		0.9910
.
==== thresholds: ====
0.4662		0.4657		0.4651		0.4646		0.4641
0.4635		0.4635		0.4630		0.4626		0.4626
0.4619		0.4615		0.4614		0.4611		0.4604
0.4602		0.4599		0.4592		0.4584		0.4584
0.4581*		0.4578		0.4576		0.4576		0.4575
0.4573		0.4571		0.4571		0.4567		0.4564
0.4561		0.4558		0.4552		0.4550		0.4549
0.4543		0.4540		0.4539		0.4536		0.4533
.
==== B.accuracy: ====
0.9917		0.9917		0.9916		0.9916		0.9916
0.9915		0.9915		0.9915		0.9914		0.9914
0.9913		0.9913		0.9913		0.9912		0.9912
0.9912		0.9917		0.9916		0.9916		0.9916
0.9921*		0.9920		0.9920		0.9920		0.9919
0.9919		0.9919		0.9918		0.9918		0.9917
0.9917		0.9917		0.9916		0.9916		0.9916
0.9915		0.9915		0.9915		0.9914		0.9919
.
---- BEST B.accuracy/threshold: 0.9920688406295415/0.458080947 ----
---- tpr/tnr: 0.9918946301925026/0.9922430510665805, achieved @ 1085  ----
