# in_scope: 1991
# distraction: 499
--- distribution of correctly retrieved identity over the retrieval ranks (1-10) ---
rank 1: 0.9949773982923155  ***  top_1 acc: 0.9949773982923155
rank 2: 0.0010045203415369162  ***  top_2 acc: 0.9959819186338523
rank 3: 0.0005022601707684581  ***  top_3 acc: 0.9964841788046208
rank 4: 0.0  ***  top_4 acc: 0.9964841788046208
rank 5: 0.0  ***  top_5 acc: 0.9964841788046208
rank 6: 0.0  ***  top_6 acc: 0.9964841788046208
rank 7: 0.0005022601707684581  ***  top_7 acc: 0.9969864389753893
rank 8: 0.0  ***  top_8 acc: 0.9969864389753893
rank 9: 0.0  ***  top_9 acc: 0.9969864389753893
rank 10: 0.0  ***  top_10 acc: 0.9969864389753893
---------------------------
.

==== f-scores: ====
0.9824		0.9826		0.9829		0.9831		0.9829
0.9831		0.9834		0.9836		0.9834		0.9836
0.9838		0.9841		0.9843		0.9841		0.9843
0.9846		0.9848		0.9851		0.9853		0.9856
0.9858*		0.9856		0.9853		0.9851		0.9853
0.9856		0.9853		0.9850		0.9848		0.9845
0.9848		0.9845		0.9843		0.9845		0.9843
0.9840		0.9842		0.9845		0.9842		0.9845
.
==== thresholds: ====
0.5237		0.5239		0.5246		0.5249		0.5251
0.5266		0.5266		0.5282		0.5282		0.5283
0.5330		0.5351		0.5361		0.5361		0.5363
0.5375		0.5376		0.5385		0.5389		0.5398
0.5431*		0.5432		0.5437		0.5440		0.5447
0.5462		0.5464		0.5466		0.5466		0.5476
0.5479		0.5490		0.5493		0.5497		0.5498
0.5515		0.5517		0.5521		0.5523		0.5526
.
---- BEST f-score/threshold: 0.98582995951417/0.5431484, achieved @ 12840

-----------------------------------------
.

==== fpr: ====
0.0027		0.0027		0.0027		0.0028		0.0028
0.0028		0.0028		0.0029		0.0029		0.0030
0.0030		0.0031		0.0031		0.0031		0.0032
0.0032		0.0033		0.0033		0.0033		0.0034
0.0034*		0.0034		0.0034		0.0035		0.0035
0.0036		0.0036		0.0037		0.0037		0.0038
0.0038		0.0038		0.0039		0.0039		0.0040
0.0040		0.0041		0.0041		0.0041		0.0042
.
==== tpr: ====
0.9864		0.9864		0.9864		0.9864		0.9869
0.9869		0.9874		0.9874		0.9874		0.9874
0.9874		0.9874		0.9874		0.9874		0.9874
0.9874		0.9874		0.9874		0.9879		0.9879
0.9884*		0.9884		0.9884		0.9884		0.9884
0.9884		0.9884		0.9884		0.9884		0.9884
0.9884		0.9884		0.9884		0.9884		0.9884
0.9884		0.9884		0.9884		0.9884		0.9884
.
==== tnr: ====
0.9973		0.9973		0.9973		0.9972		0.9972
0.9972		0.9972		0.9971		0.9971		0.9970
0.9970		0.9969		0.9969		0.9969		0.9968
0.9968		0.9967		0.9967		0.9967		0.9966
0.9966*		0.9966		0.9966		0.9965		0.9965
0.9964		0.9964		0.9963		0.9963		0.9962
0.9962		0.9962		0.9961		0.9961		0.9960
0.9960		0.9959		0.9959		0.9959		0.9958
.
==== thresholds: ====
0.5102		0.5096		0.5089		0.5085		0.5084
0.5081		0.5078		0.5073		0.5073		0.5065
0.5065		0.5062		0.5053		0.5052		0.5044
0.5043		0.5043		0.5042		0.5038		0.5036
0.5030*		0.5021		0.5020		0.5007		0.5006
0.4999		0.4991		0.4982		0.4978		0.4972
0.4965		0.4963		0.4957		0.4954		0.4953
0.4949		0.4947		0.4946		0.4945		0.4945
.
==== B.accuracy: ====
0.9919		0.9918		0.9918		0.9918		0.9921
0.9920		0.9923		0.9923		0.9922		0.9922
0.9922		0.9922		0.9922		0.9921		0.9921
0.9921		0.9921		0.9920		0.9923		0.9923
0.9925*		0.9925		0.9925		0.9925		0.9924
0.9924		0.9924		0.9924		0.9924		0.9923
0.9923		0.9923		0.9923		0.9922		0.9922
0.9922		0.9922		0.9922		0.9921		0.9921
.
---- BEST B.accuracy/threshold: 0.9925264269276831/0.503005 ----
---- tpr/tnr: 0.9884130982367758/0.9966397556185904, achieved @ 2034  ----
