# in_scope: 1991
# distraction: 499
--- distribution of correctly retrieved identity over the retrieval ranks (1-10) ---
rank 1: 0.9814163736815671  ***  top_1 acc: 0.9814163736815671
rank 2: 0.0035158211953792064  ***  top_2 acc: 0.9849321948769463
rank 3: 0.0020090406830738324  ***  top_3 acc: 0.9869412355600201
rank 4: 0.0010045203415369162  ***  top_4 acc: 0.987945755901557
rank 5: 0.0  ***  top_5 acc: 0.987945755901557
rank 6: 0.0  ***  top_6 acc: 0.987945755901557
rank 7: 0.0005022601707684581  ***  top_7 acc: 0.9884480160723255
rank 8: 0.0005022601707684581  ***  top_8 acc: 0.988950276243094
rank 9: 0.0  ***  top_9 acc: 0.988950276243094
rank 10: 0.0  ***  top_10 acc: 0.988950276243094
---------------------------
.

==== f-scores: ====
0.9672		0.9675		0.9677		0.9675		0.9672
0.9674		0.9677		0.9674		0.9672		0.9674
0.9677		0.9674		0.9676		0.9679		0.9681
0.9684		0.9686		0.9689		0.9686		0.9689
0.9691*		0.9689		0.9686		0.9683		0.9681
0.9678		0.9675		0.9678		0.9680		0.9683
0.9680		0.9677		0.9675		0.9672		0.9669
0.9667		0.9664		0.9667		0.9669		0.9666
.
==== thresholds: ====
0.5010		0.5022		0.5029		0.5031		0.5032
0.5034		0.5035		0.5044		0.5048		0.5049
0.5051		0.5053		0.5068		0.5068		0.5073
0.5080		0.5092		0.5093		0.5099		0.5101
0.5107*		0.5110		0.5113		0.5116		0.5117
0.5122		0.5122		0.5129		0.5130		0.5131
0.5134		0.5137		0.5145		0.5146		0.5149
0.5152		0.5152		0.5154		0.5157		0.5161
.
---- BEST f-score/threshold: 0.9691199176531137/0.510742664, achieved @ 11058

-----------------------------------------
.

==== fpr: ====
0.0077		0.0078		0.0078		0.0078		0.0078
0.0079		0.0079		0.0080		0.0080		0.0081
0.0081		0.0082		0.0082		0.0082		0.0083
0.0083		0.0083		0.0084		0.0084		0.0085
0.0085*		0.0085		0.0085		0.0086		0.0086
0.0087		0.0087		0.0088		0.0088		0.0089
0.0089		0.0089		0.0090		0.0090		0.0091
0.0091		0.0092		0.0092		0.0092		0.0093
.
==== tpr: ====
0.9766		0.9766		0.9771		0.9771		0.9771
0.9771		0.9771		0.9771		0.9771		0.9771
0.9771		0.9771		0.9771		0.9771		0.9771
0.9771		0.9777		0.9777		0.9777		0.9777
0.9782*		0.9782		0.9782		0.9782		0.9782
0.9782		0.9782		0.9782		0.9782		0.9782
0.9782		0.9782		0.9782		0.9782		0.9782
0.9782		0.9782		0.9782		0.9782		0.9782
.
==== tnr: ====
0.9923		0.9922		0.9922		0.9922		0.9922
0.9921		0.9921		0.9920		0.9920		0.9919
0.9919		0.9918		0.9918		0.9918		0.9917
0.9917		0.9917		0.9916		0.9916		0.9915
0.9915*		0.9915		0.9915		0.9914		0.9914
0.9913		0.9913		0.9912		0.9912		0.9911
0.9911		0.9911		0.9910		0.9910		0.9909
0.9909		0.9908		0.9908		0.9908		0.9907
.
==== thresholds: ====
0.4610		0.4609		0.4608		0.4608		0.4607
0.4607		0.4601		0.4600		0.4598		0.4593
0.4592		0.4591		0.4590		0.4590		0.4590
0.4589		0.4587		0.4587		0.4583		0.4581
0.4581*		0.4579		0.4578		0.4578		0.4577
0.4575		0.4572		0.4572		0.4571		0.4569
0.4567		0.4567		0.4567		0.4566		0.4566
0.4565		0.4565		0.4564		0.4562		0.4561
.
==== B.accuracy: ====
0.9845		0.9844		0.9847		0.9847		0.9846
0.9846		0.9846		0.9846		0.9846		0.9845
0.9845		0.9845		0.9845		0.9845		0.9844
0.9844		0.9847		0.9846		0.9846		0.9846
0.9849*		0.9848		0.9848		0.9848		0.9848
0.9847		0.9847		0.9847		0.9847		0.9847
0.9846		0.9846		0.9846		0.9846		0.9845
0.9845		0.9845		0.9845		0.9845		0.9844
.
---- BEST B.accuracy/threshold: 0.9848506701015893/0.4580637 ----
---- tpr/tnr: 0.9781615033011681/0.9915398369020104, achieved @ 2110  ----
