# positive test: 1978
# negative test: 395350
==== f-scores: ====
0.9691		0.9688		0.9691		0.9693		0.9696
0.9698		0.9701		0.9698		0.9701		0.9703
0.9706		0.9703		0.9705		0.9708		0.9710
0.9713		0.9710		0.9713		0.9710		0.9713
0.9715*		0.9712		0.9715		0.9712		0.9710
0.9712		0.9715		0.9712		0.9709		0.9712
0.9709		0.9706		0.9704		0.9701		0.9699
0.9696		0.9698		0.9696		0.9698		0.9696
.
==== thresholds: ====
0.4836		0.4841		0.4844		0.4846		0.4858
0.4870		0.4881		0.4883		0.4889		0.4893
0.4897		0.4903		0.4906		0.4907		0.4920
0.4923		0.4924		0.4925		0.4930		0.4931
0.4931*		0.4935		0.4947		0.4948		0.4950
0.4956		0.4956		0.4959		0.4970		0.4971
0.4973		0.4984		0.4985		0.4985		0.4991
0.5011		0.5017		0.5024		0.5028		0.5040
.
---- BEST f-score/threshold: 0.9715019255455712/0.4931051, achieved @ 204745

-----------------------------------------
.

==== fpr: ====
0.0022		0.0022		0.0022		0.0022		0.0022
0.0022		0.0022		0.0022		0.0023		0.0023
0.0023		0.0023		0.0023		0.0023		0.0023
0.0023		0.0023		0.0023		0.0023		0.0023
0.0023*		0.0023		0.0023		0.0023		0.0023
0.0023		0.0023		0.0023		0.0023		0.0023
0.0023		0.0023		0.0023		0.0023		0.0023
0.0023		0.0023		0.0023		0.0023		0.0023
.
==== tpr: ====
0.9879		0.9879		0.9879		0.9879		0.9879
0.9879		0.9879		0.9879		0.9879		0.9879
0.9879		0.9879		0.9879		0.9879		0.9879
0.9879		0.9879		0.9879		0.9879		0.9879
0.9884*		0.9884		0.9884		0.9884		0.9884
0.9884		0.9884		0.9884		0.9884		0.9884
0.9884		0.9884		0.9884		0.9884		0.9884
0.9884		0.9884		0.9884		0.9884		0.9884
.
==== tnr: ====
0.9978		0.9978		0.9978		0.9978		0.9978
0.9978		0.9978		0.9978		0.9977		0.9977
0.9977		0.9977		0.9977		0.9977		0.9977
0.9977		0.9977		0.9977		0.9977		0.9977
0.9977*		0.9977		0.9977		0.9977		0.9977
0.9977		0.9977		0.9977		0.9977		0.9977
0.9977		0.9977		0.9977		0.9977		0.9977
0.9977		0.9977		0.9977		0.9977		0.9977
.
==== thresholds: ====
0.3698		0.3698		0.3697		0.3697		0.3697
0.3696		0.3696		0.3695		0.3695		0.3694
0.3692		0.3692		0.3691		0.3691		0.3691
0.3690		0.3690		0.3690		0.3690		0.3690
0.3688*		0.3688		0.3688		0.3688		0.3687
0.3686		0.3686		0.3686		0.3682		0.3681
0.3681		0.3680		0.3680		0.3679		0.3679
0.3679		0.3679		0.3679		0.3678		0.3677
.
==== B.accuracy: ====
0.9928		0.9928		0.9928		0.9928		0.9928
0.9928		0.9928		0.9928		0.9928		0.9928
0.9928		0.9928		0.9928		0.9928		0.9928
0.9928		0.9928		0.9928		0.9928		0.9928
0.9930*		0.9930		0.9930		0.9930		0.9930
0.9930		0.9930		0.9930		0.9930		0.9930
0.9930		0.9930		0.9930		0.9930		0.9930
0.9930		0.9930		0.9930		0.9930		0.9930
.
---- BEST B.accuracy/threshold: 0.9930465498630886/0.368777424 ----
---- tpr/tnr: 0.9883720930232558/0.9977210067029214, achieved @ 2844  ----
